dump.vcd
$date
	Thu Jan 17 19:53:51 2019
$end
$version
	QuestaSim Version 10.6b
$end
$timescale
	1ns
$end

$scope module uvm_root $end
$upscope $end

$scope module top $end
$var reg 1 ! clk $end
$var reg 1 " rst $end

$scope module DUV $end
$var parameter 32 # ADDR_SIZE $end
$var parameter 32 $ DATA_SIZE $end
$var parameter 32 % DEPTH $end
$var wire 1 & clk $end
$var wire 1 ' rst $end
$var wire 1 ( wr $end
$var wire 1 ) rd $end
$var wire 1 * wr_addr [3] $end
$var wire 1 + wr_addr [2] $end
$var wire 1 , wr_addr [1] $end
$var wire 1 - wr_addr [0] $end
$var wire 1 . rd_addr [3] $end
$var wire 1 / rd_addr [2] $end
$var wire 1 0 rd_addr [1] $end
$var wire 1 1 rd_addr [0] $end
$var wire 1 2 data_in [31] $end
$var wire 1 3 data_in [30] $end
$var wire 1 4 data_in [29] $end
$var wire 1 5 data_in [28] $end
$var wire 1 6 data_in [27] $end
$var wire 1 7 data_in [26] $end
$var wire 1 8 data_in [25] $end
$var wire 1 9 data_in [24] $end
$var wire 1 : data_in [23] $end
$var wire 1 ; data_in [22] $end
$var wire 1 < data_in [21] $end
$var wire 1 = data_in [20] $end
$var wire 1 > data_in [19] $end
$var wire 1 ? data_in [18] $end
$var wire 1 @ data_in [17] $end
$var wire 1 A data_in [16] $end
$var wire 1 B data_in [15] $end
$var wire 1 C data_in [14] $end
$var wire 1 D data_in [13] $end
$var wire 1 E data_in [12] $end
$var wire 1 F data_in [11] $end
$var wire 1 G data_in [10] $end
$var wire 1 H data_in [9] $end
$var wire 1 I data_in [8] $end
$var wire 1 J data_in [7] $end
$var wire 1 K data_in [6] $end
$var wire 1 L data_in [5] $end
$var wire 1 M data_in [4] $end
$var wire 1 N data_in [3] $end
$var wire 1 O data_in [2] $end
$var wire 1 P data_in [1] $end
$var wire 1 Q data_in [0] $end
$var reg 32 R data_out [31:0] $end
$var integer 32 S i $end
$upscope $end
$upscope $end

$scope begin uvm_pkg $end
$var parameter 32 T UVM_HDL_MAX_WIDTH $end
$var parameter 32 U UVM_STREAMBITS $end
$var parameter 32 V UVM_RADIX $end
$var parameter 32 W UVM_MACRO_NUMFLAGS $end
$var parameter 32 X UVM_DEFAULT $end
$var parameter 32 Y UVM_ALL_ON $end
$var parameter 32 Z UVM_FLAGS_ON $end
$var parameter 32 [ UVM_FLAGS_OFF $end
$var parameter 32 \ UVM_COPY $end
$var parameter 32 ] UVM_NOCOPY $end
$var parameter 32 ^ UVM_COMPARE $end
$var parameter 32 _ UVM_NOCOMPARE $end
$var parameter 32 ` UVM_PRINT $end
$var parameter 32 a UVM_NOPRINT $end
$var parameter 32 b UVM_RECORD $end
$var parameter 32 c UVM_NORECORD $end
$var parameter 32 d UVM_PACK $end
$var parameter 32 e UVM_NOPACK $end
$var parameter 32 f UVM_PHYSICAL $end
$var parameter 32 g UVM_ABSTRACT $end
$var parameter 32 h UVM_READONLY $end
$var parameter 32 i UVM_NODEFPRINT $end
$var parameter 32 j UVM_MACRO_EXTRAS $end
$var parameter 32 k UVM_FLAGS $end
$var parameter 32 l UVM_UNPACK $end
$var parameter 32 m UVM_CHECK_FIELDS $end
$var parameter 32 n UVM_END_DATA_EXTRA $end
$var parameter 32 o UVM_START_FUNCS $end
$var parameter 32 p UVM_SET $end
$var parameter 32 q UVM_SETINT $end
$var parameter 32 r UVM_SETOBJ $end
$var parameter 32 s UVM_SETSTR $end
$var parameter 32 t UVM_END_FUNCS $end
$var parameter 32 u UVM_STR_CRC_POLYNOMIAL $end
$var parameter 32 v UVM_STDOUT $end
$var parameter 32 w UVM_LINE_WIDTH $end
$var parameter 32 x UVM_NUM_LINES $end
$var parameter 32 y UVM_SMALL_STRING $end
$var parameter 32 z UVM_LARGE_STRING $end
$var reg 1 { uvm_start_uvm_declarations $end
$var integer 32 | uvm_global_random_seed $end
$var integer 32 } UVM_UNBOUNDED_CONNECTIONS $end

$scope function uvm_hdl_check_path $end
$var integer 32 ~ uvm_hdl_check_path $end
$upscope $end

$scope function uvm_hdl_deposit $end
$var integer 32 !! uvm_hdl_deposit $end
$var reg 1024 "! value [1023:0] $end
$upscope $end

$scope function uvm_hdl_force $end
$var integer 32 #! uvm_hdl_force $end
$var reg 1024 $! value [1023:0] $end
$upscope $end

$scope task uvm_hdl_force_time $end
$var reg 1024 %! value [1023:0] $end
$var time 64 &! force_time $end
$upscope $end

$scope function uvm_hdl_release_and_read $end
$var integer 32 '! uvm_hdl_release_and_read $end
$var reg 1024 (! value [1023:0] $end
$upscope $end

$scope function uvm_hdl_release $end
$var integer 32 )! uvm_hdl_release $end
$upscope $end

$scope function uvm_hdl_read $end
$var integer 32 *! uvm_hdl_read $end
$var reg 1024 +! value [1023:0] $end
$upscope $end

$scope function uvm_dpi_get_next_arg_c $end
$upscope $end

$scope function uvm_dpi_get_tool_name_c $end
$upscope $end

$scope function uvm_dpi_get_tool_version_c $end
$upscope $end

$scope function uvm_dpi_get_next_arg $end
$upscope $end

$scope function uvm_dpi_get_tool_name $end
$upscope $end

$scope function uvm_dpi_get_tool_version $end
$upscope $end

$scope function uvm_dpi_regcomp $end
$upscope $end

$scope function uvm_dpi_regexec $end
$var integer 32 ,! uvm_dpi_regexec $end
$upscope $end

$scope function uvm_dpi_regfree $end
$upscope $end

$scope function uvm_re_match $end
$var integer 32 -! uvm_re_match $end
$upscope $end

$scope function uvm_dump_re_cache $end
$upscope $end

$scope function uvm_glob_to_re $end
$upscope $end

$scope function uvm_revision_string $end
$upscope $end

$scope function uvm_radix_to_string $end
$var integer 32 .! radix $end
$upscope $end

$scope function uvm_instance_scope $end
$var reg 8 /! c [7:0] $end
$var integer 32 0! pos $end
$upscope $end

$scope function uvm_oneway_hash $end
$var integer 32 1! uvm_oneway_hash $end
$var integer 32 2! seed $end
$var reg 1 3! msb $end
$var reg 8 4! current_byte [7:0] $end
$var reg 32 5! crc1 [31:0] $end
$upscope $end

$scope function uvm_create_random_seed $end
$var integer 32 6! uvm_create_random_seed $end
$upscope $end

$scope function uvm_object_value_str $end
$upscope $end

$scope function uvm_leaf_scope $end
$var reg 8 7! scope_separator [7:0] $end
$var reg 8 8! bracket_match [7:0] $end
$var integer 32 9! pos $end
$var integer 32 :! bmatches $end
$upscope $end

$scope function uvm_vector_to_string $end
$var reg 4096 ;! value [4095:0] $end
$var integer 32 <! size $end
$var integer 32 =! radix $end
$upscope $end

$scope function uvm_get_array_index_int $end
$var integer 32 >! uvm_get_array_index_int $end
$var reg 1 ?! is_wildcard $end
$var integer 32 @! i $end
$upscope $end

$scope function uvm_get_array_index_string $end
$var reg 1 A! is_wildcard $end
$var integer 32 B! i $end
$upscope $end

$scope function uvm_is_array $end
$var reg 1 C! uvm_is_array $end
$upscope $end

$scope function uvm_has_wildcard $end
$upscope $end

$scope task run_test $end
$upscope $end

$scope function global_stop_request $end
$upscope $end

$scope function set_global_timeout $end
$var time 64 D! timeout $end
$var reg 1 E! overridable $end
$upscope $end

$scope function set_global_stop_timeout $end
$var time 64 F! timeout $end
$upscope $end

$scope function uvm_report_enabled $end
$var reg 1 G! uvm_report_enabled $end
$var integer 32 H! verbosity $end
$var reg 2 I! severity [1:0] $end
$upscope $end

$scope function uvm_report $end
$var reg 2 J! severity [1:0] $end
$var integer 32 K! verbosity $end
$var integer 32 L! line $end
$upscope $end

$scope function uvm_report_info $end
$var integer 32 M! verbosity $end
$var integer 32 N! line $end
$upscope $end

$scope function uvm_report_warning $end
$var integer 32 O! verbosity $end
$var integer 32 P! line $end
$upscope $end

$scope function uvm_report_error $end
$var integer 32 Q! verbosity $end
$var integer 32 R! line $end
$upscope $end

$scope function uvm_report_fatal $end
$var integer 32 S! verbosity $end
$var integer 32 T! line $end
$upscope $end

$scope function uvm_string_to_severity $end
$var reg 1 U! uvm_string_to_severity $end
$var reg 2 V! sev [1:0] $end
$upscope $end

$scope function uvm_string_to_action $end
$upscope $end

$scope function set_config_int $end
$var reg 4096 W! value [4095:0] $end
$upscope $end

$scope function set_config_object $end
$var reg 1 X! clone $end
$upscope $end

$scope function set_config_string $end
$upscope $end

$scope function uvm_is_match $end
$var reg 1 Y! uvm_is_match $end
$upscope $end

$scope function uvm_string_to_bits $end
$var reg 115200 Z! uvm_string_to_bits [115199:0] $end
$upscope $end

$scope function uvm_bits_to_string $end
$var reg 115200 [! str [115199:0] $end
$upscope $end

$scope task uvm_wait_for_nba_region $end
$var integer 32 \! nba $end
$var integer 32 ]! next_nba $end
$upscope $end

$scope function uvm_split_string $end
$upscope $end

$scope function uvm_hdl_concat2string $end
$upscope $end
$upscope $end

$scope begin my_pkg $end
$upscope $end

$scope begin top_sv_unit $end
$upscope $end

$scope begin std $end
$upscope $end

$scope begin questa_uvm_pkg $end
$upscope $end
$enddefinitions $end
#0
$dumpvars
0!
0"
bx R
0A!
0C!
0U!
b0 V!
bx Z!
bx [!
bx "!
bx $!
bx %!
bx (!
bx +!
1{
13!
b1101000 4!
b10111001011001100100011100011001 5!
bx ;!
0?!
0E!
0G!
b0 I!
b0 J!
bx W!
0X!
0Y!
b100 #
b100000 $
b10000 %
b10000000000 T
b1000000000000 U
b1111000000000000000000000000 V
b10001 W
b10101010101 X
b101010101 Y
b101010101 Z
b0 [
b1 \
b10 ]
b100 ^
b1000 _
b10000 `
b100000 a
b1000000 b
b10000000 c
b100000000 d
b1000000000 e
b10000000000000 f
b100000000000000 g
b1000000000000000 h
b10000000000000000 i
b100000000000000000 j
b100000000000000001 k
b100000000000000010 l
b100000000000000011 m
b100000000000000100 n
b100000000000000101 o
b100000000000000110 p
b100000000000000110 q
b100000000000000111 r
b100000000000001000 s
b100000000000001000 t
b100110000010001110110110110 u
b1 v
b1111000 w
b1111000 x
b1110111111 y
b11100000111111111 z
bx S
b0 .!
b0 7!
b0 8!
b0 9!
b0 :!
b0 B!
b0 ~
b0 !!
b0 #!
b0 '!
b0 )!
b0 *!
b1 ,!
b0 -!
b1101001011000001111100000011110 |
b101110 /!
b111 0!
b1010000000110011001000101100100 1!
b1101001011000001111100000011110 2!
b10010111011110111111110001111 6!
b0 <!
b0 =!
b0 >!
b0 @!
b111110100 H!
b0 K!
b0 L!
b11001000 M!
b11011001 N!
b0 O!
b0 P!
b0 Q!
b0 R!
b0 S!
b0 T!
b100100 \!
b100100 ]!
b11111111111111111111111111111111 }
bx &!
bx D!
bx F!
0'
0&
x1
x0
x/
x.
x-
x,
x+
x*
xQ
xP
xO
xN
xM
xL
xK
xJ
xI
xH
xG
xF
xE
xD
xC
xB
xA
x@
x?
x>
x=
x<
x;
x:
x9
x8
x7
x6
x5
x4
x3
x2
x(
x)
$end
#5
1!
1&
b100101 ]!
b1010000000110011001000101100101 6!
b100101 \!
#6
1"
1'
b0 S
b1 S
b10 S
b11 S
b100 S
b101 S
b110 S
b111 S
b1000 S
b1001 S
b1010 S
b1011 S
b1100 S
b1101 S
b1110 S
b1111 S
b10000 S
b0 R
1(
0)
0Q
1P
1O
1N
1M
1L
1K
1J
1I
1H
1G
1F
1E
1D
1C
1B
1A
1@
1?
1>
1=
1<
1;
1:
19
18
17
16
15
14
13
12
0-
0,
0+
0*
#8
0"
0'
#10
0!
0&
#15
1!
1&
b100110 ]!
b1010000000110011001000101100111 6!
b100110 \!
#16
1Q
0P
1-
#20
0!
0&
#25
1!
1&
b100111 ]!
b1010000000110011001000101101010 6!
b100111 \!
#26
1P
0O
0-
1,
#30
0!
0&
#35
1!
1&
b101000 ]!
b1010000000110011001000101101110 6!
b101000 \!
#36
1O
0N
1-
#40
0!
0&
#45
1!
1&
b101001 ]!
b1010000000110011001000101110011 6!
b101001 \!
#46
1N
0M
0-
0,
1+
#50
0!
0&
#55
1!
1&
b101010 ]!
b1010000000110011001000101111001 6!
b101010 \!
#56
1M
0L
1-
#60
0!
0&
#65
1!
1&
b101011 ]!
b1010000000110011001000110000000 6!
b101011 \!
#66
1L
0K
0-
1,
#70
0!
0&
#75
1!
1&
b101100 ]!
b1010000000110011001000110001000 6!
b101100 \!
#76
1K
0J
1-
#80
0!
0&
#85
1!
1&
b101101 ]!
b1010000000110011001000110010001 6!
b101101 \!
#86
1J
0I
0-
0,
0+
1*
#90
0!
0&
#95
1!
1&
b101110 ]!
b1010000000110011001000110011011 6!
b101110 \!
#96
1I
0H
1-
#100
0!
0&
#105
1!
1&
b101111 ]!
b1010000000110011001000110100110 6!
b101111 \!
#106
1H
0G
0-
1,
#110
0!
0&
#115
1!
1&
b110000 ]!
b1010000000110011001000110110010 6!
b110000 \!
#116
1G
0F
1-
#120
0!
0&
#125
1!
1&
b110001 ]!
b1010000000110011001000110111111 6!
b110001 \!
#126
1F
0E
0-
0,
1+
#130
0!
0&
#135
1!
1&
b110010 ]!
b1010000000110011001000111001101 6!
b110010 \!
#136
1E
0D
1-
#140
0!
0&
#145
1!
1&
b110011 ]!
b1010000000110011001000111011100 6!
b110011 \!
#146
1D
0C
0-
1,
#150
0!
0&
#155
1!
1&
b110100 ]!
b1010000000110011001000111101100 6!
b110100 \!
#156
1C
0B
1-
#160
0!
0&
#165
1!
1&
b110101 ]!
b1010000000110011001000111111101 6!
b110101 \!
#166
1B
0A
0-
0,
0+
0*
#170
0!
0&
#175
1!
1&
b110110 ]!
b1010000000110011001001000001111 6!
b110110 \!
#176
1A
0@
1-
#180
0!
0&
#185
1!
1&
b110111 ]!
b1010000000110011001001000100010 6!
b110111 \!
#186
1@
0?
0-
1,
#190
0!
0&
